{
    "slug": "kleeslabs",
    "name": "KleeSlabs",
    "tagline": "Allows only breaking one half of a double slab.",
    "porting": "DONE",
    "links": {
        "curseforge": "https://minecraft.curseforge.com/projects/kleeslabs",
        "github": "https://github.com/blay09/KleeSlabs"
    }
}
